…
Map/Reduce reduced damage, but not number of shots, it’s easy to fix that in R

damage <- read_tsv("data/pvpdamage.tsv",
                   col_names=c("solarSystemID", "shipTypeID", "attackerShipTypeID", "moduleTypeID", "chargeTypeID", "numShots", "damage"),
                   col_types=cols(numShots = col_double(), 
                                  damage = col_double()),
                   na = "None") %>%
  group_by(solarSystemID, shipTypeID, attackerShipTypeID, moduleTypeID, chargeTypeID) %>%
  summarize(numShots = sum(numShots), 
            damage = sum(damage)) %>%
  ungroup()

Now we have our dataset

## # A tibble: 1,829,186 × 7
##    solarSystemID shipTypeID attackerShipTypeID moduleTypeID chargeTypeID numShots damage
##            <int>      <int>              <int>        <int>        <int>    <dbl>  <dbl>
## 1       30000001        594              32876         8091          210        7   2633
## 2       30000001        597                602        10631        24471        9   1096
## 3       30000001        601                606         3640           NA        4      0
## 4       30000001        602                597         2889        21924        8   2870
## 5       30000001        603                630         2488           NA       18    390
## 6       30000001        603                630         8027        27371        6   1215
## 7       30000001        606              16240         7291          222        1    252
## 8       30000001        626                626         2195           NA        6   2887
## 9       30000001        626                626         2454           NA       15    672
## 10      30000001        626                626         2464           NA        5    238
## # ... with 1,829,176 more rows

I can then use join to resolve the typeID’s into names for easier interpretation

damage.named <- damage %>%
  inner_join(select(inventory.types, typeID, moduleType = typeName, moduleGroup = groupName, moduleCategory = categoryName), by = c("moduleTypeID" = "typeID")) %>%
  inner_join(select(inventory.types, typeID, chargeType = typeName, chargeGroup = groupName), by = c("chargeTypeID" = "typeID")) %>%
  inner_join(select(inventory.types, typeID, victimShipType = typeName), by = c("shipTypeID" = "typeID")) %>%
  inner_join(select(inventory.types, typeID, attackerShipType = typeName), by = c("attackerShipTypeID" = "typeID")) %>%
  inner_join(select(solarsystems, solarSystemID, solarSystem = solarSystemName, region = regionName), by = "solarSystemID") 

damage.named

## # A tibble: 1,089,013 × 16
##    solarSystemID shipTypeID attackerShipTypeID moduleTypeID chargeTypeID numShots damage                                        moduleType
##            <int>      <int>              <int>        <int>        <int>    <dbl>  <dbl>                                             <chr>
## 1       30000001        594              32876         8091          210        7   2633              TE-2100 Ample Light Missile Launcher
## 2       30000001        597                602        10631        24471        9   1096                                Rocket Launcher II
## 3       30000001        602                597         2889        21924        8   2870                               200mm AutoCannon II
## 4       30000001        603                630         8027        27371        6   1215 Prototype 'Arbalest' Rapid Light Missile Launcher
## 5       30000001        606              16240         7291          222        1    252                           150mm Carbide Railgun I
## 6       30000001        626                626         7287        22961        6   1739                         150mm Prototype Gauss Gun
## 7       30000001        630                603          561          222        4    243                               75mm Gatling Rail I
## 8       30000001       2175              17715        25715        20308        1    142                 Heavy Assault Missile Launcher II
## 9       30000001       2205              33155         3520          254        5      0                              Heavy Pulse Laser II
## 10      30000001      12005              17715         2410         2629       15    885                         Heavy Missile Launcher II
## # ... with 1,089,003 more rows, and 8 more variables: moduleGroup <chr>, moduleCategory <chr>, chargeType <chr>, chargeGroup <chr>,
## #   victimShipType <chr>, attackerShipType <chr>, solarSystem <chr>, region <chr>

Make a variable called damage_per_shot variable and list the top ones

damage.named %>%
  #filter(moduleGroup == "Energy Weapon") %>%
  group_by(moduleType, chargeType) %>%
  summarize(numShots = sum(numShots),
            damage = sum(damage)) %>%
  mutate(damage_per_shot = damage / numShots) %>%
  arrange(desc(damage_per_shot))

## Source: local data frame [6,631 x 5]
## Groups: moduleType [641]
## 
##                                  moduleType                          chargeType numShots   damage damage_per_shot
##                                       <chr>                               <chr>    <dbl>    <dbl>           <dbl>
## 1             XL Cruise Missile Launcher II      Scourge Fury XL Cruise Missile        1 44042728        44042728
## 2        CONCORD XL Cruise Missile Launcher         Nova Fury XL Cruise Missile        1 11796912        11796912
## 3             XL Cruise Missile Launcher II Inferno Precision XL Cruise Missile        1 11372840        11372840
## 4             XL Cruise Missile Launcher II Mjolnir Precision XL Cruise Missile        1  6020138         6020138
## 5             XL Cruise Missile Launcher II      Inferno Fury XL Cruise Missile        8 46658754         5832344
## 6  TE-2100 Ample XL Cruise Missile Launcher  Guristas Scourge XL Cruise Missile        1  5270263         5270263
## 7      Afocal Precise Dual Giga Pulse Laser           Sanshas Multifrequency XL       12 42038329         3503194
## 8         Limited Precise Ion Siege Blaster       Guristas Antimatter Charge XL        3 10229271         3409757
## 9               CONCORD XL Torpedo Launcher                     Nova XL Torpedo        4 11907532         2976883
## 10       CONCORD XL Cruise Missile Launcher      Scourge Fury XL Cruise Missile       17 50321997         2960117
## # ... with 6,621 more rows
…
